Size of the operator pool: 148
Exact energy 0: -1.9961503198
ansatz energy: -1.8291373900
ngates: [0, 2, 0, 0, 4, 4]
variance: 0.0998822781, energy: -1.8291373900
ngates: [0, 2, 0, 0, 4, 4]
variance: 0.0772272644, energy: -1.8666548726
Qlanc energy: -1.8666548726+0.0000000000j
ngates: [0, 2, 0, 0, 4, 4]
variance: 0.0597000830, energy: -1.8955828293
ngates: [0, 2, 0, 0, 4, 4]
variance: 0.0462826740, energy: -1.9177975244
Qlanc energy: -1.9892674293+0.0000000000j
ngates: [0, 2, 0, 0, 4, 5]
variance: 0.0360807282, energy: -1.9348126806
ngates: [0, 2, 0, 0, 4, 5]
variance: 0.0279429383, energy: -1.9480675841
Qlanc energy: -1.9907415066+0.0000000000j
ngates: [0, 3, 1, 0, 4, 6]
variance: 0.0219162753, energy: -1.9581629446
ngates: [0, 4, 2, 0, 4, 6]
variance: 0.0173071827, energy: -1.9660317503
Qlanc energy: -1.9916781664+0.0000000000j
ngates: [0, 5, 2, 0, 7, 8]
variance: 0.0137637871, energy: -1.9721692717
ngates: [0, 6, 3, 0, 7, 8]
variance: 0.0133352978, energy: -1.9743224187
Qlanc energy: -1.9864848751+0.0000000000j
ngates: [0, 6, 3, 0, 7, 8]
variance: 0.0167973582, energy: -1.9760813563
Stopped due to increase in variance
ngates: [0, 6, 3, 0, 7, 8]
variance: 0.0098606697, energy: -1.9803138687
Qlanc energy: -1.9871979768+0.0000000000j
ngates: [0, 6, 3, 0, 7, 8]
variance: 0.0074417790, energy: -1.9839083583
ngates: [0, 6, 3, 0, 7, 8]
variance: 0.0058163631, energy: -1.9864561425
Qlanc energy: -1.9915926361+0.0000000000j
ngates: [0, 6, 3, 0, 8, 8]
variance: 0.0046688189, energy: -1.9882749178
ngates: [0, 6, 3, 0, 8, 8]
variance: 0.0041119447, energy: -1.9894358762
Qlanc energy: -1.9927194020+0.0000000000j
ngates: [0, 6, 3, 0, 8, 8]
variance: 0.0034321847, energy: -1.9906145032
ngates: [0, 6, 3, 0, 8, 8]
variance: 0.0026542700, energy: -1.9917457731
Qlanc energy: -1.9950135534+0.0000000000j
ngates: [0, 6, 3, 0, 8, 8]
variance: 0.0020199538, energy: -1.9926543371
ngates: [0, 6, 3, 0, 8, 8]
variance: 0.0015568078, energy: -1.9933411859
Qlanc energy: -1.9964800056+0.0000000000j
ngates: [0, 6, 3, 0, 8, 8]
variance: 0.0012198718, energy: -1.9938603105
ngates: [0, 6, 3, 0, 8, 8]
variance: 0.0009715005, energy: -1.9942566593
Qlanc energy: -1.9961500328+0.0000000000j
ngates: [0, 6, 3, 0, 8, 8]
variance: 0.0007861197, energy: -1.9945626168
ngates: [0, 6, 3, 0, 8, 8]
variance: 0.0006462680, energy: -1.9948013808
Qlanc energy: -1.9958849263+0.0000000000j
ngates: [0, 6, 3, 0, 8, 8]
variance: 0.0005397798, energy: -1.9949897074
ngates: [0, 6, 3, 0, 8, 8]
variance: 0.0004580092, energy: -1.9951398345
Qlanc energy: -1.9957989571+0.0000000000j
ngates: [0, 6, 3, 0, 8, 8]
variance: 0.0003947100, energy: -1.9952607932
ngates: [0, 6, 3, 0, 8, 8]
variance: 0.0003453123, energy: -1.9953593071
Qlanc energy: -1.9957849117+0.0000000000j
ngates: [0, 6, 3, 0, 8, 8]
variance: 0.0003064404, energy: -1.9954404193
ngates: [0, 6, 3, 0, 8, 8]
variance: 0.0002755829, energy: -1.9955079359
Qlanc energy: -1.9958147728+0.0000000000j
ngates: [0, 6, 3, 0, 8, 8]
variance: 0.0002508600, energy: -1.9955647461
ngates: [0, 6, 3, 0, 8, 8]
variance: 0.0002308582, energy: -1.9956130540
Qlanc energy: -1.9958170507+0.0000000000j
ngates: [0, 6, 3, 0, 8, 8]
variance: 0.0002145099, energy: -1.9956545504
ngates: [0, 6, 3, 0, 8, 8]
variance: 0.0002010057, energy: -1.9956905387
Qlanc energy: -1.9958152980+0.0000000000j
ngates: [0, 6, 3, 0, 8, 8]
variance: 0.0001897299, energy: -1.9957220293
ngates: [0, 6, 3, 0, 8, 8]
variance: 0.0001802123, energy: -1.9957498100
Qlanc energy: -1.9958255329+0.0000000000j
ngates: [0, 6, 3, 0, 8, 8]
variance: 0.0001720926, energy: -1.9957744993
ngates: [0, 6, 3, 0, 8, 8]
variance: 0.0001650936, energy: -1.9957965858
Qlanc energy: -1.9958437217+0.0000000000j
ngates: [0, 6, 3, 0, 8, 8]
variance: 0.0001590010, energy: -1.9958164583
ngates: [0, 6, 3, 0, 8, 8]
variance: 0.0001536487, energy: -1.9958344293
Qlanc energy: -1.9958646545+0.0000000000j
ngates: [0, 6, 3, 0, 8, 8]
variance: 0.0001489068, energy: -1.9958507516
ngates: [0, 6, 3, 0, 8, 8]
variance: 0.0001446735, energy: -1.9958656318
Qlanc energy: -1.9958855883+0.0000000000j
ngates: [0, 6, 3, 0, 8, 8]
variance: 0.0001408684, energy: -1.9958792405
ngates: [0, 6, 3, 0, 8, 8]
variance: 0.0001374274, energy: -1.9958917198
Qlanc energy: -1.9959052745+0.0000000000j
ngates: [0, 6, 3, 0, 8, 8]
variance: 0.0001342993, energy: -1.9959031895
ngates: [0, 6, 3, 0, 8, 8]
variance: 0.0001314425, energy: -1.9959137513
Qlanc energy: -1.9959232117+0.0000000000j
ngates: [0, 6, 3, 0, 8, 8]
variance: 0.0001288232, energy: -1.9959234925
ngates: [0, 6, 3, 0, 8, 8]
variance: 0.0001264134, energy: -1.9959324889
Qlanc energy: -1.9959392655+0.0000000000j
ngates: [0, 6, 3, 0, 8, 8]
variance: 0.0001241900, energy: -1.9959408067
ngates: [0, 6, 3, 0, 8, 8]
variance: 0.0001221334, energy: -1.9959485040
Qlanc energy: -1.9959534786+0.0000000000j
ngates: [0, 6, 3, 0, 8, 8]
variance: 0.0001202272, energy: -1.9959556327
ngates: [0, 6, 3, 0, 8, 8]
variance: 0.0001184570, energy: -1.9959622391
Qlanc energy: -1.9959659752+0.0000000000j
ngates: [0, 6, 3, 0, 8, 8]
variance: 0.0001168106, energy: -1.9959683645
ngates: [0, 6, 3, 0, 8, 8]
variance: 0.0001152773, energy: -1.9959740466
Qlanc energy: -1.9959769121+0.0000000000j
ngates: [0, 6, 3, 0, 8, 8]
variance: 0.0001138477, energy: -1.9959793194
ngates: [0, 6, 3, 0, 8, 8]
variance: 0.0001125133, energy: -1.9959842139
Qlanc energy: -1.9959864535+0.0000000000j
ngates: [0, 6, 3, 0, 8, 8]
variance: 0.0001112667, energy: -1.9959887584
ngates: [0, 6, 3, 0, 8, 8]
variance: 0.0001101011, energy: -1.9959929788
Qlanc energy: -1.9959947589+0.0000000000j
ngates: [0, 6, 3, 0, 8, 8]
variance: 0.0001090106, energy: -1.9959968990
ngates: [0, 6, 3, 0, 8, 8]
variance: 0.0001079896, energy: -1.9960005409
Qlanc energy: -1.9960019766+0.0000000000j
ngates: [0, 6, 3, 0, 8, 8]
variance: 0.0001070330, energy: -1.9960039246
ngates: [0, 6, 3, 0, 8, 8]
variance: 0.0001061364, energy: -1.9960070688
Qlanc energy: -1.9960082416+0.0000000000j
ngates: [0, 6, 3, 0, 8, 8]
variance: 0.0001052954, energy: -1.9960099908
ngates: [0, 6, 3, 0, 8, 8]
variance: 0.0001045063, energy: -1.9960127064
Qlanc energy: -1.9960136749+0.0000000000j
ngates: [0, 6, 3, 0, 8, 8]
variance: 0.0001037655, energy: -1.9960152305
ngates: [0, 6, 3, 0, 8, 8]
variance: 0.0001030697, energy: -1.9960175766
Qlanc energy: -1.9960183837+0.0000000000j
ngates: [0, 6, 3, 0, 8, 8]
variance: 0.0001024159, energy: -1.9960197574
ngates: [0, 6, 3, 0, 8, 8]
variance: 0.0001018012, energy: -1.9960217847
Qlanc energy: -1.9960224624+0.0000000000j
ngates: [0, 6, 3, 0, 8, 8]
variance: 0.0001012231, energy: -1.9960236693
ngates: [0, 6, 3, 0, 8, 8]
variance: 0.0001006792, energy: -1.9960254214
Qlanc energy: -1.9960259941+0.0000000000j
ngates: [0, 6, 3, 0, 8, 8]
variance: 0.0001001672, energy: -1.9960270503
ngates: [0, 6, 3, 0, 8, 8]
variance: 0.0000996850, energy: -1.9960285647
Qlanc energy: -1.9960290512+0.0000000000j
ngates: [0, 6, 3, 0, 8, 8]
variance: 0.0000992308, energy: -1.9960299728
ngates: [0, 6, 3, 0, 8, 8]
variance: 0.0000988027, energy: -1.9960312819
Qlanc energy: -1.9960316969+0.0000000000j
ngates: [0, 6, 3, 0, 8, 8]
variance: 0.0000983991, energy: -1.9960324991
ngates: [0, 6, 3, 0, 8, 8]
variance: 0.0000980183, energy: -1.9960336309
Qlanc energy: -1.9960339861+0.0000000000j
ngates: [0, 6, 3, 0, 8, 8]
variance: 0.0000976591, energy: -1.9960346832
ngates: [0, 6, 3, 0, 8, 8]
variance: 0.0000973199, energy: -1.9960356617
Qlanc energy: -1.9960359667+0.0000000000j
ngates: [0, 6, 3, 0, 8, 8]
variance: 0.0000969996, energy: -1.9960365716
ngates: [0, 6, 3, 0, 8, 8]
variance: 0.0000966969, energy: -1.9960374177
Qlanc energy: -1.9960376800+0.0000000000j
ngates: [0, 6, 3, 0, 8, 8]
variance: 0.0000964109, energy: -1.9960382044
ngates: [0, 6, 3, 0, 8, 8]
variance: 0.0000961405, energy: -1.9960389360
Qlanc energy: -1.9960391620+0.0000000000j
ngates: [0, 6, 3, 0, 8, 8]
variance: 0.0000958846, energy: -1.9960396163
ngates: [0, 6, 3, 0, 8, 8]
variance: 0.0000956425, energy: -1.9960402489
Qlanc energy: -1.9960404439+0.0000000000j
ngates: [0, 6, 3, 0, 8, 8]
variance: 0.0000954134, energy: -1.9960408371
ngates: [0, 6, 3, 0, 8, 8]
variance: 0.0000951963, energy: -1.9960413842
Qlanc energy: -1.9960415527+0.0000000000j
ngates: [0, 6, 3, 0, 8, 8]
variance: 0.0000949907, energy: -1.9960418929
ngates: [0, 6, 3, 0, 8, 8]
variance: 0.0000947958, energy: -1.9960423660
Qlanc energy: -1.9960425117+0.0000000000j
ngates: [0, 6, 3, 0, 8, 8]
variance: 0.0000946110, energy: -1.9960428060
ngates: [0, 6, 3, 0, 8, 8]
variance: 0.0000944358, energy: -1.9960432151
Qlanc energy: -1.9960433412+0.0000000000j
ngates: [0, 6, 3, 0, 8, 8]
variance: 0.0000942695, energy: -1.9960435956
ngates: [0, 6, 3, 0, 8, 8]
variance: 0.0000941116, energy: -1.9960439494
Qlanc energy: -1.9960440586+0.0000000000j
ngates: [0, 6, 3, 0, 8, 8]
variance: 0.0000939618, energy: -1.9960442785
ngates: [0, 6, 3, 0, 8, 8]
variance: 0.0000938194, energy: -1.9960445846
Qlanc energy: -1.9960446790+0.0000000000j
ngates: [0, 6, 3, 0, 8, 8]
variance: 0.0000936841, energy: -1.9960448692
ngates: [0, 6, 3, 0, 8, 8]
variance: 0.0000935555, energy: -1.9960451339
Qlanc energy: -1.9960452157+0.0000000000j
ngates: [0, 6, 3, 0, 8, 8]
variance: 0.0000934332, energy: -1.9960453800
ngates: [0, 6, 3, 0, 8, 8]
variance: 0.0000933169, energy: -1.9960456090
Qlanc energy: -1.9960456798+0.0000000000j
ngates: [0, 6, 3, 0, 8, 8]
variance: 0.0000932062, energy: -1.9960458219
ngates: [0, 6, 3, 0, 8, 8]
variance: 0.0000931009, energy: -1.9960460199
Qlanc energy: -1.9960460813+0.0000000000j
ngates: [0, 6, 3, 0, 8, 8]
variance: 0.0000930005, energy: -1.9960462041
ngates: [0, 6, 3, 0, 8, 8]
variance: 0.0000929050, energy: -1.9960463753
Qlanc energy: -1.9960464285+0.0000000000j
ngates: [0, 6, 3, 0, 8, 8]
variance: 0.0000928139, energy: -1.9960465346
ngates: [0, 6, 3, 0, 8, 8]
variance: 0.0000927272, energy: -1.9960466828
Qlanc energy: -1.9960467289+0.0000000000j
ngates: [0, 6, 3, 0, 8, 8]
variance: 0.0000926444, energy: -1.9960468206
ngates: [0, 6, 3, 0, 8, 8]
variance: 0.0000925655, energy: -1.9960469487
Qlanc energy: -1.9960469887+0.0000000000j
ngates: [0, 6, 3, 0, 8, 8]
variance: 0.0000924902, energy: -1.9960470679
ngates: [0, 6, 3, 0, 8, 8]
variance: 0.0000924184, energy: -1.9960471788
Qlanc energy: -1.9960472134+0.0000000000j
ngates: [0, 6, 3, 0, 8, 8]
variance: 0.0000923499, energy: -1.9960472818
ngates: [0, 6, 3, 0, 8, 8]
variance: 0.0000922844, energy: -1.9960473777
Qlanc energy: -1.9960474077+0.0000000000j
ngates: [0, 6, 3, 0, 8, 8]
variance: 0.0000922219, energy: -1.9960474669
ngates: [0, 6, 3, 0, 8, 8]
variance: 0.0000921621, energy: -1.9960475499
Qlanc energy: -1.9960475758+0.0000000000j
ngates: [0, 6, 3, 0, 8, 8]
variance: 0.0000921051, energy: -1.9960476270
ngates: [0, 6, 3, 0, 8, 8]
variance: 0.0000920505, energy: -1.9960476988
Qlanc energy: -1.9960477213+0.0000000000j
ngates: [0, 6, 3, 0, 8, 8]
variance: 0.0000919984, energy: -1.9960477655
ngates: [0, 6, 3, 0, 8, 8]
variance: 0.0000919485, energy: -1.9960478276
Qlanc energy: -1.9960478470+0.0000000000j
ngates: [0, 6, 3, 0, 8, 8]
variance: 0.0000919008, energy: -1.9960478853
ngates: [0, 6, 3, 0, 8, 8]
variance: 0.0000918551, energy: -1.9960479390
Qlanc energy: -1.9960479559+0.0000000000j
ngates: [0, 6, 3, 0, 8, 8]
variance: 0.0000918115, energy: -1.9960479889
ngates: [0, 6, 3, 0, 8, 8]
variance: 0.0000917696, energy: -1.9960480354
Qlanc energy: -1.9960480500+0.0000000000j
ngates: [0, 6, 3, 0, 8, 8]
variance: 0.0000917296, energy: -1.9960480786
ngates: [0, 6, 3, 0, 8, 8]
variance: 0.0000916913, energy: -1.9960481188
Qlanc energy: -1.9960481314+0.0000000000j
ngates: [0, 6, 3, 0, 8, 8]
variance: 0.0000916546, energy: -1.9960481561
ngates: [0, 6, 3, 0, 8, 8]
variance: 0.0000916194, energy: -1.9960481909
Qlanc energy: -1.9960482019+0.0000000000j
ngates: [0, 6, 3, 0, 8, 8]
variance: 0.0000915857, energy: -1.9960482232
ngates: [0, 6, 3, 0, 8, 8]
variance: 0.0000915534, energy: -1.9960482533
Qlanc energy: -1.9960482628+0.0000000000j
ngates: [0, 6, 3, 0, 8, 8]
variance: 0.0000915224, energy: -1.9960482813
ngates: [0, 6, 3, 0, 8, 8]
variance: 0.0000914927, energy: -1.9960483073
Qlanc energy: -1.9960483155+0.0000000000j
ngates: [0, 6, 3, 0, 8, 8]
variance: 0.0000914643, energy: -1.9960483315
ngates: [0, 6, 3, 0, 8, 8]
variance: 0.0000914370, energy: -1.9960483540
Qlanc energy: -1.9960483611+0.0000000000j
ngates: [0, 6, 3, 0, 8, 8]
variance: 0.0000914108, energy: -1.9960483749
ngates: [0, 6, 3, 0, 8, 8]
variance: 0.0000913857, energy: -1.9960483944
Qlanc energy: -1.9960484005+0.0000000000j
ngates: [0, 6, 3, 0, 8, 8]
variance: 0.0000913615, energy: -1.9960484125
ngates: [0, 6, 3, 0, 8, 8]
variance: 0.0000913384, energy: -1.9960484293
Qlanc energy: -1.9960484347+0.0000000000j
ngates: [0, 6, 3, 0, 8, 8]
variance: 0.0000913162, energy: -1.9960484450
ngates: [0, 6, 3, 0, 8, 8]
variance: 0.0000912949, energy: -1.9960484596
Qlanc energy: -1.9960484642+0.0000000000j
ngates: [0, 6, 3, 0, 8, 8]
variance: 0.0000912744, energy: -1.9960484731
ngates: [0, 6, 3, 0, 8, 8]
variance: 0.0000912548, energy: -1.9960484857
Qlanc energy: -1.9960484897+0.0000000000j
ngates: [0, 6, 3, 0, 8, 8]
variance: 0.0000912359, energy: -1.9960484975
ngates: [0, 6, 3, 0, 8, 8]
variance: 0.0000912178, energy: -1.9960485084
Qlanc energy: -1.9960485118+0.0000000000j
ngates: [0, 6, 3, 0, 8, 8]
variance: 0.0000912003, energy: -1.9960485185
ngates: [0, 6, 3, 0, 8, 8]
variance: 0.0000911836, energy: -1.9960485279
Qlanc energy: -1.9960485309+0.0000000000j
ngates: [0, 6, 3, 0, 8, 8]
variance: 0.0000911675, energy: -1.9960485367
ngates: [0, 6, 3, 0, 8, 8]
variance: 0.0000911521, energy: -1.9960485449
Qlanc energy: -1.9960485475+0.0000000000j
ngates: [0, 6, 3, 0, 8, 8]
variance: 0.0000911372, energy: -1.9960485525
ngates: [0, 6, 3, 0, 8, 8]
variance: 0.0000911229, energy: -1.9960485595
Qlanc energy: -1.9960485618+0.0000000000j
ngates: [0, 6, 3, 0, 8, 8]
variance: 0.0000911092, energy: -1.9960485661
ngates: [0, 6, 3, 0, 8, 8]
variance: 0.0000910960, energy: -1.9960485722
Qlanc energy: -1.9960485742+0.0000000000j
ngates: [0, 6, 3, 0, 8, 8]
variance: 0.0000910833, energy: -1.9960485779
ngates: [0, 6, 3, 0, 8, 8]
variance: 0.0000910711, energy: -1.9960485832
Qlanc energy: -1.9960485849+0.0000000000j
ngates: [0, 6, 3, 0, 8, 8]
variance: 0.0000910594, energy: -1.9960485881
ngates: [0, 6, 3, 0, 8, 8]
variance: 0.0000910481, energy: -1.9960485927
Qlanc energy: -1.9960485941+0.0000000000j
ngates: [0, 6, 3, 0, 8, 8]
variance: 0.0000910373, energy: -1.9960485969
ngates: [0, 6, 3, 0, 8, 8]
variance: 0.0000910269, energy: -1.9960486009
Qlanc energy: -1.9960486021+0.0000000000j
ngates: [0, 6, 3, 0, 8, 8]
variance: 0.0000910168, energy: -1.9960486046
ngates: [0, 6, 3, 0, 8, 8]
variance: 0.0000910072, energy: -1.9960486080
Qlanc energy: -1.9960486091+0.0000000000j
ngates: [0, 6, 3, 0, 8, 8]
variance: 0.0000909979, energy: -1.9960486112
ngates: [0, 6, 3, 0, 8, 8]
variance: 0.0000909889, energy: -1.9960486141
Qlanc energy: -1.9960486151+0.0000000000j
ngates: [0, 6, 3, 0, 8, 8]
variance: 0.0000909803, energy: -1.9960486169
ngates: [0, 6, 3, 0, 8, 8]
variance: 0.0000909720, energy: -1.9960486194
Qlanc energy: -1.9960486203+0.0000000000j
ngates: [0, 6, 3, 0, 8, 8]
variance: 0.0000909641, energy: -1.9960486218
ngates: [0, 6, 3, 0, 8, 8]
variance: 0.0000909564, energy: -1.9960486240
Qlanc energy: -1.9960486248+0.0000000000j
ngates: [0, 6, 3, 0, 8, 8]
variance: 0.0000909490, energy: -1.9960486261
ngates: [0, 6, 3, 0, 8, 8]
variance: 0.0000909419, energy: -1.9960486280
Qlanc energy: -1.9960486286+0.0000000000j
ngates: [0, 6, 3, 0, 8, 8]
variance: 0.0000909350, energy: -1.9960486298
ngates: [0, 6, 3, 0, 8, 8]
variance: 0.0000909285, energy: -1.9960486315
Qlanc energy: -1.9960486320+0.0000000000j
ngates: [0, 6, 3, 0, 8, 8]
variance: 0.0000909221, energy: -1.9960486330
ngates: [0, 6, 3, 0, 8, 8]
variance: 0.0000909160, energy: -1.9960486344
Qlanc energy: -1.9960486349+0.0000000000j
ngates: [0, 6, 3, 0, 8, 8]
variance: 0.0000909101, energy: -1.9960486358
ngates: [0, 6, 3, 0, 8, 8]
variance: 0.0000909045, energy: -1.9960486370
Qlanc energy: -1.9960486374+0.0000000000j
ngates: [0, 6, 3, 0, 8, 8]
variance: 0.0000908990, energy: -1.9960486382
ngates: [0, 6, 3, 0, 8, 8]
variance: 0.0000908938, energy: -1.9960486393
Qlanc energy: -1.9960486396+0.0000000000j
ngates: [0, 6, 3, 0, 8, 8]
variance: 0.0000908887, energy: -1.9960486403
ngates: [0, 6, 3, 0, 8, 8]
variance: 0.0000908838, energy: -1.9960486412
Qlanc energy: -1.9960486415+0.0000000000j
ngates: [0, 6, 3, 0, 8, 8]
variance: 0.0000908791, energy: -1.9960486420
ngates: [0, 6, 3, 0, 8, 8]
variance: 0.0000908746, energy: -1.9960486429
Qlanc energy: -1.9960486431+0.0000000000j
ngates: [0, 6, 3, 0, 8, 8]
variance: 0.0000908703, energy: -1.9960486436
ngates: [0, 6, 3, 0, 8, 8]
variance: 0.0000908661, energy: -1.9960486443
Qlanc energy: -1.9960486445+0.0000000000j
ngates: [0, 6, 3, 0, 8, 8]
variance: 0.0000908620, energy: -1.9960486449
ngates: [0, 6, 3, 0, 8, 8]
variance: 0.0000908581, energy: -1.9960486455
Qlanc energy: -1.9960486457+0.0000000000j
ngates: [0, 6, 3, 0, 8, 8]
variance: 0.0000908544, energy: -1.9960486461
ngates: [0, 6, 3, 0, 8, 8]
variance: 0.0000908508, energy: -1.9960486466
Qlanc energy: -1.9960486468+0.0000000000j
ngates: [0, 6, 3, 0, 8, 8]
variance: 0.0000908473, energy: -1.9960486471
ngates: [0, 6, 3, 0, 8, 8]
variance: 0.0000908439, energy: -1.9960486476
Qlanc energy: -1.9960486477+0.0000000000j
ngates: [0, 6, 3, 0, 8, 8]
variance: 0.0000908407, energy: -1.9960486480
ngates: [0, 6, 3, 0, 8, 8]
variance: 0.0000908376, energy: -1.9960486484
Qlanc energy: -1.9960486485+0.0000000000j
ngates: [0, 6, 3, 0, 8, 8]
variance: 0.0000908346, energy: -1.9960486487
ngates: [0, 6, 3, 0, 8, 8]
variance: 0.0000908317, energy: -1.9960486491
Qlanc energy: -1.9960486492+0.0000000000j
ngates: [0, 6, 3, 0, 8, 8]
variance: 0.0000908289, energy: -1.9960486494
ngates: [0, 6, 3, 0, 8, 8]
variance: 0.0000908262, energy: -1.9960486497
Qlanc energy: -1.9960486498+0.0000000000j
ngates: [0, 6, 3, 0, 8, 8]
variance: 0.0000908237, energy: -1.9960486499
ngates: [0, 6, 3, 0, 8, 8]
variance: 0.0000908212, energy: -1.9960486502
Qlanc energy: -1.9960486503+0.0000000000j
ngates: [0, 6, 3, 0, 8, 8]
variance: 0.0000908188, energy: -1.9960486504
ngates: [0, 6, 3, 0, 8, 8]
variance: 0.0000908164, energy: -1.9960486507
Qlanc energy: -1.9960486507+0.0000000000j
ngates: [0, 6, 3, 0, 8, 8]
variance: 0.0000908142, energy: -1.9960486509
ngates: [0, 6, 3, 0, 8, 8]
variance: 0.0000908121, energy: -1.9960486510
Qlanc energy: -1.9960486511+0.0000000000j
ngates: [0, 6, 3, 0, 8, 8]
variance: 0.0000908100, energy: -1.9960486512
ngates: [0, 6, 3, 0, 8, 8]
variance: 0.0000908080, energy: -1.9960486514
Qlanc energy: -1.9960486514+0.0000000000j
ngates: [0, 6, 3, 0, 8, 8]
variance: 0.0000908061, energy: -1.9960486515
ngates: [0, 6, 3, 0, 8, 8]
variance: 0.0000908042, energy: -1.9960486517
Qlanc energy: -1.9960486517+0.0000000000j
ngates: [0, 6, 3, 0, 8, 8]
variance: 0.0000908024, energy: -1.9960486518
ngates: [0, 6, 3, 0, 8, 8]
variance: 0.0000908007, energy: -1.9960486519
Qlanc energy: -1.9960486520+0.0000000000j
ngates: [0, 6, 3, 0, 8, 8]
variance: 0.0000907990, energy: -1.9960486520
ngates: [0, 6, 3, 0, 8, 8]
variance: 0.0000907974, energy: -1.9960486522
Qlanc energy: -1.9960486522+0.0000000000j
ngates: [0, 6, 3, 0, 8, 8]
variance: 0.0000907959, energy: -1.9960486523
Stopped due to convergence in 205 steps
Number of operators in the final ansatz: 25
Compare with initial ansatz energy: -1.9960486522
Compare with the exact energy 0: -1.9961503198
Compare with the exact energy 1: -1.9255585479
Compare with the exact energy 2: -1.8529030442
pthmaxt = 4.73e+00
qLanczos E0: -1.9960486522+0.0000000000j
qLanczos E1: 2.5000000000+0.0000000000j
Slope = 0.07 ; Intercept = -2.00
Extrapolated energy: -1.9960547775
