0.000000000000000000e+00 2.365269595566132921e-01 -7.423750506999995480e+01
1.000000000000000056e-01 2.310856284721012344e-01 -7.424915666171591511e+01
2.000000000000000111e-01 2.255446978751933784e-01 -7.426028937806584906e+01
3.000000000000000444e-01 2.199607319062124589e-01 -7.427089487426145809e+01
4.000000000000000222e-01 1.787178337826844654e-01 -7.423563732698777073e+01
5.000000000000000000e-01 1.590520140425724094e-01 -7.426551503011454258e+01
5.999999999999999778e-01 5.409022039439150831e-01 -7.396891364385858481e+01
6.999999999999999556e-01 3.066986800431550364e-01 -7.389675554350672826e+01
7.999999999999999334e-01 2.599415742606652202e-01 -7.406345141300933221e+01
8.999999999999999112e-01 2.985504503531046794e-01 -7.410553643386249689e+01
9.999999999999998890e-01 2.732730405396068818e-01 -7.415881010492083192e+01
1.099999999999999867e+00 2.554942055066931061e-01 -7.422109158705634968e+01
1.199999999999999956e+00 2.322050766215397744e-01 -7.428146938840423275e+01
1.300000000000000044e+00 2.133003313092558528e-01 -7.432345764915027075e+01
1.400000000000000133e+00 1.962219240558624733e-01 -7.436149621066783766e+01
1.500000000000000222e+00 1.829615299775468884e-01 -7.439575677949733290e+01
1.600000000000000311e+00 1.690841124009239138e-01 -7.442899902775107535e+01
1.700000000000000400e+00 1.555482431404016097e-01 -7.445912163782247717e+01
1.800000000000000488e+00 1.429163824968782137e-01 -7.448579630140588392e+01
1.900000000000000577e+00 1.322546202900412027e-01 -7.450656553036537844e+01
2.000000000000000444e+00 1.216968468625054811e-01 -7.452624947627619179e+01
2.100000000000000533e+00 1.110543614258858724e-01 -7.454628702986678945e+01
2.200000000000000622e+00 1.004627839738532202e-01 -7.456607146011502607e+01
2.300000000000000711e+00 9.021932670930254972e-02 -7.458465088332431492e+01
2.400000000000000799e+00 8.082909631048096344e-02 -7.460130392743818106e+01
2.500000000000000888e+00 7.336864385706576286e-02 -7.461548118891106185e+01
2.600000000000000977e+00 6.811376722635031911e-02 -7.462821369902495405e+01
2.700000000000001066e+00 6.125386495568818646e-02 -7.464058895519217174e+01
2.800000000000001155e+00 5.392784866398869781e-02 -7.465216828068541588e+01
2.900000000000001243e+00 4.727871829436480766e-02 -7.466241217984787681e+01
3.000000000000001332e+00 4.165762082902801922e-02 -7.467124557067745627e+01
3.100000000000001421e+00 3.697912649840873200e-02 -7.467880010659909829e+01
3.200000000000001510e+00 3.306568810057797236e-02 -7.468525559486434418e+01
3.300000000000001599e+00 2.968723090907587903e-02 -7.469090095938447860e+01
3.400000000000001688e+00 2.656181256770651089e-02 -7.469607446767469128e+01
3.500000000000001776e+00 2.360687776217673672e-02 -7.470085543441220466e+01
3.600000000000001865e+00 2.090070231952267932e-02 -7.470518052531419073e+01
3.700000000000001954e+00 1.848445989617175655e-02 -7.470903448424519411e+01
3.800000000000002043e+00 1.635015151168772718e-02 -7.471244573687133084e+01
3.900000000000002132e+00 1.447087413453118643e-02 -7.471545751159472104e+01
4.000000000000001776e+00 1.281582116735080490e-02 -7.471811529095097626e+01
4.100000000000001421e+00 1.135482171048352029e-02 -7.472046354664604451e+01
4.200000000000001066e+00 1.006120482725236798e-02 -7.472254270037620927e+01
4.300000000000000711e+00 8.915515091757697519e-03 -7.472438547575345069e+01
4.400000000000000355e+00 7.903227676251844969e-03 -7.472602005450197282e+01
4.500000000000000000e+00 7.010053556768980343e-03 -7.472747257679343136e+01
4.599999999999999645e+00 6.222198482646490447e-03 -7.472876512902182355e+01
4.699999999999999289e+00 5.527692774194292724e-03 -7.472991553231722150e+01
4.799999999999998934e+00 4.916589667118387297e-03 -7.473093840624294160e+01
4.899999999999998579e+00 4.380365781798900571e-03 -7.473184584425295895e+01
4.999999999999998224e+00 3.909086331077560317e-03 -7.473265142913270154e+01
5.099999999999997868e+00 3.492482751425995957e-03 -7.473337075123085071e+01
5.199999999999997513e+00 3.123280181171139702e-03 -7.473401583946925086e+01
5.299999999999997158e+00 2.795404514472465962e-03 -7.473459599306026746e+01
5.399999999999996803e+00 2.502884455680032261e-03 -7.473511781652483421e+01
5.499999999999996447e+00 2.240758357402228285e-03 -7.473558580949428176e+01
5.599999999999996092e+00 2.005931443818553817e-03 -7.473600423048638675e+01
5.699999999999995737e+00 1.796338666281371843e-03 -7.473637778965583323e+01
5.799999999999995381e+00 1.610082437764503993e-03 -7.473671128198056124e+01
5.899999999999995026e+00 1.445276975573506206e-03 -7.473700903681236696e+01
5.999999999999994671e+00 1.300031984101224225e-03 -7.473727471913719000e+01
6.099999999999994316e+00 1.172307045635534450e-03 -7.473751161104350160e+01
6.199999999999993960e+00 1.060019984834070783e-03 -7.473772277118568752e+01
6.299999999999993605e+00 9.613680140319047496e-04 -7.473791085235374965e+01
6.399999999999993250e+00 8.750118940952233970e-04 -7.473807788788802497e+01
6.499999999999992895e+00 8.001758942555170506e-04 -7.473822508403874565e+01
6.599999999999992539e+00 7.366916488535935059e-04 -7.473835281522555363e+01
6.699999999999992184e+00 6.839667930762516335e-04 -7.473846262594123857e+01
6.799999999999991829e+00 6.369318489305442199e-04 -7.473856269386567419e+01
6.899999999999991473e+00 5.889984140594606288e-04 -7.473866146090048801e+01
6.999999999999991118e+00 5.413123235484817997e-04 -7.473875739541142593e+01
7.099999999999990763e+00 4.967283302903524600e-04 -7.473884751301272900e+01
7.199999999999990408e+00 4.563465090541285463e-04 -7.473893077491045744e+01
7.299999999999990052e+00 4.202343443466816097e-04 -7.473900722074709790e+01
7.399999999999989697e+00 3.880821795974043198e-04 -7.473907730037524288e+01
7.499999999999989342e+00 3.594778299884637818e-04 -7.473914158706064370e+01
7.599999999999988987e+00 3.340073244544328190e-04 -7.473920066294839160e+01
7.699999999999988631e+00 3.112890753982355818e-04 -7.473925507486154629e+01
7.799999999999988276e+00 2.909830891439924017e-04 -7.473930531924625598e+01
7.899999999999987921e+00 2.727908831730019301e-04 -7.473935183943930838e+01
7.999999999999987566e+00 2.564521282693021931e-04 -7.473939502808437396e+01
8.099999999999987210e+00 2.417404493826325051e-04 -7.473943523151801571e+01
8.199999999999986855e+00 2.284591537318192422e-04 -7.473947275469426188e+01
8.299999999999986500e+00 2.164373190680635162e-04 -7.473950786600852325e+01
8.399999999999986144e+00 2.055263857982936315e-04 -7.473954080175562353e+01
8.499999999999985789e+00 1.955970410563168116e-04 -7.473957177013643616e+01
8.599999999999985434e+00 1.865367812570184469e-04 -7.473960095479965560e+01
8.699999999999985079e+00 1.782474919309606776e-04 -7.473962851795511142e+01
8.799999999999984723e+00 1.706435577943921089e-04 -7.473965460309173636e+01
8.899999999999984368e+00 1.636502347537316382e-04 -7.473967933734668634e+01
8.999999999999984013e+00 1.572020773892290890e-04 -7.473970283357007816e+01
9.099999999999983658e+00 1.512417620688211173e-04 -7.473972519211820043e+01
9.199999999999983302e+00 1.457190110158990137e-04 -7.473974650241319750e+01
9.299999999999982947e+00 1.405895718562533148e-04 -7.473976684430012085e+01
9.399999999999982592e+00 1.358145436824997887e-04 -7.473978628922357359e+01
9.499999999999982236e+00 1.313595548708690330e-04 -7.473980490125397580e+01
9.599999999999981881e+00 1.271942364837741479e-04 -7.473982273797744824e+01
9.699999999999981526e+00 1.232917320521664806e-04 -7.473983985127118501e+01
9.799999999999981171e+00 1.196281446027569473e-04 -7.473985628797986180e+01
9.899999999999980815e+00 1.161822810900048353e-04 -7.473987209050271474e+01
9.999999999999980460e+00 1.129352358475443907e-04 -7.473988729730821490e+01
1.009999999999998010e+01 1.098701486625941470e-04 -7.473990194338212234e+01
1.019999999999997975e+01 1.069719392035040073e-04 -7.473991606061993309e+01
1.029999999999997939e+01 1.042270705511327833e-04 -7.473992967817099498e+01
1.039999999999997904e+01 1.016234464259468950e-04 -7.473994282273848455e+01
1.049999999999997868e+01 9.915013652062043548e-05 -7.473995551884554800e+01
1.059999999999997833e+01 9.679726736067095771e-05 -7.473996778906754912e+01
1.069999999999997797e+01 9.455600320507073775e-05 -7.473997965423551193e+01
1.079999999999997762e+01 9.241825136996340007e-05 -7.473999113361939806e+01
1.089999999999997726e+01 9.037672407430363819e-05 -7.474000224508571932e+01
1.099999999999997691e+01 8.842478928272612393e-05 -7.474001300523950420e+01
1.109999999999997655e+01 8.655640613142168149e-05 -7.474002342954969436e+01
1.119999999999997620e+01 8.476604307361412793e-05 -7.474003353246021675e+01
1.129999999999997584e+01 8.304864059027750045e-05 -7.474004332748886270e+01
1.139999999999997549e+01 8.139955934893805534e-05 -7.474005282731529576e+01
1.149999999999997513e+01 7.981451744853984565e-05 -7.474006204386010666e+01
1.159999999999997478e+01 7.828958132449770346e-05 -7.474007098835471652e+01
1.169999999999997442e+01 7.682108025619527325e-05 -7.474007967140531150e+01
1.179999999999997407e+01 7.540563456132076681e-05 -7.474008810304886197e+01
1.189999999999997371e+01 7.404007192235440016e-05 -7.474009629280483580e+01
1.199999999999997335e+01 7.272143830050481483e-05 -7.474010424972094313e+01
1.209999999999997300e+01 7.144695427996339276e-05 -7.474011198241518628e+01
1.219999999999997264e+01 7.021399324003141373e-05 -7.474011949911322006e+01
1.229999999999997229e+01 6.902008772158296779e-05 -7.474012680768211681e+01
1.239999999999997193e+01 6.786287121940404177e-05 -7.474013391566145970e+01
1.249999999999997158e+01 6.674007272522430867e-05 -7.474014083029004496e+01
1.259999999999997122e+01 6.564956674992572516e-05 -7.474014755852920189e+01
1.269999999999997087e+01 6.458925145125249401e-05 -7.474015410708452123e+01
1.279999999999997051e+01 6.355711138894548640e-05 -7.474016048242215504e+01
1.289999999999997016e+01 6.255117932596476749e-05 -7.474016669078228858e+01
1.299999999999996980e+01 6.156952895253198221e-05 -7.474017273818824947e+01
1.309999999999996945e+01 6.061025760573102161e-05 -7.474017863045136778e+01
1.319999999999996909e+01 5.967148717900272459e-05 -7.474018437317005237e+01
1.329999999999996874e+01 5.875133319932501763e-05 -7.474018997172356649e+01
1.339999999999996838e+01 5.784792665508575737e-05 -7.474019543125854170e+01
1.349999999999996803e+01 5.695939398719929159e-05 -7.474020075666811636e+01
1.359999999999996767e+01 5.608380615740315989e-05 -7.474020595256361332e+01
1.369999999999996732e+01 5.521925413631834090e-05 -7.474021102323563071e+01
1.379999999999996696e+01 5.436381252366118133e-05 -7.474021597260792760e+01
1.389999999999996660e+01 5.351556410460034385e-05 -7.474022080418384917e+01
1.399999999999996625e+01 5.267270353215280920e-05 -7.474022552098810479e+01
1.409999999999996589e+01 5.183355460758320987e-05 -7.474023012551324996e+01
1.419999999999996554e+01 5.099669124319916591e-05 -7.474023461968133120e+01
1.429999999999996518e+01 5.016117029299493879e-05 -7.474023900483831540e+01
1.439999999999996483e+01 4.932663705403683707e-05 -7.474024328181221222e+01
1.449999999999996447e+01 4.849351444136118516e-05 -7.474024745106326861e+01
1.459999999999996412e+01 4.766318579640937969e-05 -7.474025151295631986e+01
1.469999999999996376e+01 4.683794213633518666e-05 -7.474025546816397991e+01
1.479999999999996341e+01 4.602097851602593437e-05 -7.474025931815126000e+01
1.489999999999996305e+01 4.521605296758934855e-05 -7.474026306562551270e+01
1.499999999999996270e+01 4.442724912223638967e-05 -7.474026671475915862e+01
1.509999999999996234e+01 4.365868790046079084e-05 -7.474027027101132603e+01
1.519999999999996199e+01 4.291442382964305580e-05 -7.474027374050153583e+01
1.529999999999996163e+01 4.219830043439287692e-05 -7.474027712911224341e+01
1.539999999999996128e+01 4.151376015215646476e-05 -7.474028044164944617e+01
1.549999999999996092e+01 4.086365697730798274e-05 -7.474028368136174549e+01
1.559999999999996056e+01 4.024986810691189021e-05 -7.474028684992887861e+01
1.569999999999996021e+01 3.967324391851434484e-05 -7.474028994780891821e+01
1.579999999999995985e+01 3.913349974027369171e-05 -7.474029297474599787e+01
1.589999999999995950e+01 3.862937774101737887e-05 -7.474029593025171891e+01
1.599999999999995914e+01 3.815889704128494486e-05 -7.474029881396141661e+01
1.609999999999995879e+01 3.771952196984784678e-05 -7.474030162584332970e+01
1.619999999999996021e+01 3.730846492544515058e-05 -7.474030436628022755e+01
1.629999999999996163e+01 3.692279005917953327e-05 -7.474030703606526060e+01
1.639999999999996305e+01 3.655965156212914735e-05 -7.474030963634619695e+01
1.649999999999996447e+01 3.621632640715688467e-05 -7.474031216854987747e+01
1.659999999999996589e+01 3.589030166040174663e-05 -7.474031463430281974e+01
1.669999999999996732e+01 3.557927811925765127e-05 -7.474031703535982274e+01
1.679999999999996874e+01 3.528121305862441659e-05 -7.474031937354443755e+01
1.689999999999997016e+01 3.499428748909849674e-05 -7.474032165070273948e+01
1.699999999999997158e+01 3.471686977718491107e-05 -7.474032386867045830e+01
1.709999999999997300e+01 3.444751837378134951e-05 -7.474032602924988566e+01
1.719999999999997442e+01 3.418492906348546967e-05 -7.474032813419665899e+01
1.729999999999997584e+01 3.392790677025914192e-05 -7.474033018521402028e+01
1.739999999999997726e+01 3.367532917764037848e-05 -7.474033218395346978e+01
1.749999999999997868e+01 3.342612035339698195e-05 -7.474033413202067777e+01
1.759999999999998010e+01 3.317923801660072058e-05 -7.474033603098678213e+01
1.769999999999998153e+01 3.293366899015381932e-05 -7.474033788240424769e+01
1.779999999999998295e+01 3.268837826908566058e-05 -7.474033968782852355e+01
1.789999999999998437e+01 3.244232448196271434e-05 -7.474034144884318209e+01
1.799999999999998579e+01 3.219444897695211694e-05 -7.474034316708839754e+01
1.809999999999998721e+01 3.194378223270177841e-05 -7.474034484428848657e+01
1.819999999999998863e+01 3.168932289554504678e-05 -7.474034648227713262e+01
1.829999999999999005e+01 3.143030335195362568e-05 -7.474034808300496024e+01
1.839999999999999147e+01 3.116605512332171202e-05 -7.474034964852891960e+01
1.849999999999999289e+01 3.089628262387122959e-05 -7.474035118096334429e+01
1.859999999999999432e+01 3.062102223339024931e-05 -7.474035268239737206e+01
1.869999999999999574e+01 3.034074143215548247e-05 -7.474035415477875688e+01
1.879999999999999716e+01 3.005637699970975518e-05 -7.474035559978824494e+01
1.889999999999999858e+01 2.976918040076270700e-05 -7.474035701873775395e+01
1.900000000000000000e+01 2.948072233266429976e-05 -7.474035841251965451e+01
1.910000000000000142e+01 2.919264807133004069e-05 -7.474035978162739013e+01
1.920000000000000284e+01 2.890652922360459343e-05 -7.474036112623552697e+01
1.930000000000000426e+01 2.862376095436047763e-05 -7.474036244631221848e+01
1.940000000000000568e+01 2.834549650287954137e-05 -7.474036374173344655e+01
1.950000000000000711e+01 2.807259261317085475e-05 -7.474036501237613095e+01
1.960000000000000853e+01 2.780566683213692158e-05 -7.474036625817856816e+01
1.970000000000000995e+01 2.754512388492003083e-05 -7.474036747917183732e+01
1.980000000000001137e+01 2.729116204136516899e-05 -7.474036867548929308e+01
1.990000000000001279e+01 2.704382859519682825e-05 -7.474036984736095235e+01
2.000000000000001421e+01 2.680315083125606179e-05 -7.474037099509969551e+01
2.010000000000001563e+01 2.656896867847535759e-05 -7.474037211908888878e+01
2.020000000000001705e+01 2.634119209687924013e-05 -7.474037321976464909e+01
2.030000000000001847e+01 2.611964555399026722e-05 -7.474037429760507223e+01
2.040000000000001990e+01 2.590414078440517187e-05 -7.474037535311856573e+01
2.050000000000002132e+01 2.569452863099286333e-05 -7.474037638683434182e+01
2.060000000000002274e+01 2.549065447965404019e-05 -7.474037739929599411e+01
2.070000000000002416e+01 2.529241010051919147e-05 -7.474037839105437797e+01
2.080000000000002558e+01 2.509969453967642039e-05 -7.474037936266256565e+01
2.090000000000002700e+01 2.491243321856018156e-05 -7.474038031466974985e+01
2.100000000000002842e+01 2.473060249030822888e-05 -7.474038124761503354e+01
2.110000000000002984e+01 2.455416688462719321e-05 -7.474038216202170304e+01
2.120000000000003126e+01 2.438317369524156675e-05 -7.474038305838963936e+01
