0.32824322*I
0.21982060*Z5
-0.00345102*Z3X4X5
-0.00345102*Y4Y5
0.08925836*Z4Z5
-0.02200480*X3X4Z5
-0.02200480*Y3Y4
-0.14467875*Z3Z4
-0.54684736*Z3
0.21982060*Z2
-0.00345102*Z0X1X2
-0.00345102*Y1Y2
0.08925836*Z1Z2
-0.02200480*X0X1Z2
-0.02200480*Y0Y1
-0.14467875*Z0Z1
-0.54684736*Z0
0.17782497*Z4
-0.01796451*X3X4
-0.01796451*Y3Y4Z5
0.20218523*Z3Z4Z5
0.21167959*Z3Z5
0.01161455*Z3Y4Y5
0.01161455*X4X5
-0.05210282*X3X5
0.02581007*X3Z4X5
-0.02629275*Y3Y5
0.13762571*Z2Z5
-0.02266251*Z2Z3X4X5
-0.02266251*Z2Y4Y5
-0.03896933*X2Z4X5
0.03896933*Z1X2Z4X5
0.03896933*X2X5
-0.03896933*Z1X2X5
-0.01178850*X2X3X4X5
0.01178850*Z1X2X3X4X5
-0.01178850*X2Y3X4Y5
0.01178850*Z1X2Y3X4Y5
-0.02266251*Y1Y2Z5
-0.02266251*Z0X1X2Z5
0.02676723*Y1Y2Z3X4X5
0.02676723*Z0X1X2Z3X4X5
0.02676723*Y1Y2Y4Y5
0.02676723*Z0X1X2Y4Y5
0.01178850*Y0X1Y2Z4X5
0.01178850*X0X1X2Z4X5
-0.01178850*Y0X1Y2X5
-0.01178850*X0X1X2X5
0.02343056*Y0X1Y2X3X4X5
0.02343056*X0X1X2X3X4X5
0.02343056*Y0X1Y2Y3X4Y5
0.02343056*X0X1X2Y3X4Y5
0.12047410*Z1Z2Z5
0.00107759*Z1Z2Z3X4X5
0.00107759*Z1Z2Y4Y5
-0.02602112*X1Z4X5
0.02602112*Z0X1Z2Z4X5
0.02602112*X1X5
-0.02602112*Z0X1Z2X5
0.01033252*X1X3X4X5
-0.01033252*Z0X1Z2X3X4X5
0.01033252*X1Y3X4Y5
-0.01033252*Z0X1Z2Y3X4Y5
0.02352511*Y0Y1Z5
0.02352511*X0X1Z2Z5
-0.02347890*Y0Y1Z3X4X5
-0.02347890*X0X1Z2Z3X4X5
-0.02347890*Y0Y1Y4Y5
-0.02347890*X0X1Z2Y4Y5
0.12456344*Z0Z1Z5
-0.00518559*Z0Z1Z3X4X5
-0.00518559*Z0Z1Y4Y5
0.03638393*X0Z4X5
-0.03638393*X0Z1Z4X5
-0.03638393*X0X5
0.03638393*X0Z1X5
0.01123392*X0X3X4X5
-0.01123392*X0Z1X3X4X5
0.01123392*X0Y3X4Y5
-0.01123392*X0Z1Y3X4Y5
0.14635777*Z0Z5
-0.02456290*Z0Z3X4X5
-0.02456290*Z0Y4Y5
0.12047410*Z2Z4Z5
0.02352511*Z2X3X4Z5
0.02352511*Z2Y3Y4
-0.02602112*X2Z3X4Z5
0.02602112*Z1X2Z3X4Z5
0.02602112*X2X4
-0.02602112*Z1X2X4
0.00107759*Y1Y2Z4Z5
0.00107759*Z0X1X2Z4Z5
-0.02347890*Y1Y2X3X4Z5
-0.02347890*Z0X1X2X3X4Z5
-0.02347890*Y1Y2Y3Y4
-0.02347890*Z0X1X2Y3Y4
-0.01033252*Y0X1Y2Z3X4Z5
-0.01033252*X0X1X2Z3X4Z5
0.01033252*Y0X1Y2X4
0.01033252*X0X1X2X4
0.12496804*Z1Z2Z4Z5
0.00354018*Z1Z2X3X4Z5
0.00354018*Z1Z2Y3Y4
-0.03456875*X1Z3X4Z5
0.03456875*Z0X1Z2Z3X4Z5
0.03456875*X1X4
-0.03456875*Z0X1Z2X4
0.00354018*Y0Y1Z4Z5
0.00354018*X0X1Z2Z4Z5
0.02536568*Y0Y1X3X4Z5
0.02536568*X0X1Z2X3X4Z5
0.02536568*Y0Y1Y3Y4
0.02536568*X0X1Z2Y3Y4
0.12332113*Z0Z1Z4Z5
0.00399757*Z0Z1X3X4Z5
0.00399757*Z0Z1Y3Y4
0.02570355*X0Z3X4Z5
-0.02570355*X0Z1Z3X4Z5
-0.02570355*X0X4
0.02570355*X0Z1X4
0.12975470*Z0Z4Z5
0.02710798*Z0X3X4Z5
0.02710798*Z0Y3Y4
0.12456344*Z2Z3Z4
0.03638393*X2X3Z4
-0.03638393*Z1X2X3Z4
-0.03638393*X2X3
0.03638393*Z1X2X3
-0.00518559*Y1Y2Z3Z4
-0.00518559*Z0X1X2Z3Z4
-0.01123392*Y0X1Y2X3Z4
-0.01123392*X0X1X2X3Z4
0.01123392*Y0X1Y2X3
0.01123392*X0X1X2X3
0.12332113*Z1Z2Z3Z4
0.02570355*X1X3Z4
-0.02570355*Z0X1Z2X3Z4
-0.02570355*X1X3
0.02570355*Z0X1Z2X3
0.00399757*Y0Y1Z3Z4
0.00399757*X0X1Z2Z3Z4
0.12973486*Z0Z1Z3Z4
-0.03958309*X0X3Z4
0.03958309*X0Z1X3Z4
0.03958309*X0X3
-0.03958309*X0Z1X3
0.13590329*Z0Z3Z4
0.14635777*Z2Z3
-0.02456290*Y1Y2Z3
-0.02456290*Z0X1X2Z3
0.12975470*Z1Z2Z3
0.02710798*Y0Y1Z3
0.02710798*X0X1Z2Z3
0.13590329*Z0Z1Z3
0.16657058*Z0Z3
0.17782497*Z1
-0.01796451*X0X1
-0.01796451*Y0Y1Z2
0.20218523*Z0Z1Z2
0.21167959*Z0Z2
0.01161455*Z0Y1Y2
0.01161455*X1X2
-0.05210282*X0X2
0.02581007*X0Z1X2
-0.02629275*Y0Y2
