Size of the operator pool: 148
Exact energy 0: -1.9961503198
ansatz energy: -1.8291373900
ngates: [0, 0, 0, 0, 4, 4]
variance: 0.0998822781, energy: -1.8291373900
ngates: [0, 0, 0, 0, 4, 4]
variance: 0.0779865656, energy: -1.8658899727
Qlanc energy: -1.8658899727+0.0000000000j
ngates: [0, 0, 0, 0, 4, 4]
variance: 0.0607836547, energy: -1.8944171852
ngates: [0, 0, 0, 0, 4, 4]
variance: 0.0474800609, energy: -1.9164058260
Qlanc energy: -1.9883020858+0.0000000000j
ngates: [0, 0, 0, 0, 4, 4]
variance: 0.0373049985, energy: -1.9332727265
ngates: [0, 0, 0, 0, 4, 4]
variance: 0.0295807555, energy: -1.9461693993
Qlanc energy: -1.9876878668+0.0000000000j
ngates: [0, 0, 0, 0, 4, 4]
variance: 0.0237480506, energy: -1.9560103858
ngates: [0, 0, 0, 0, 4, 4]
variance: 0.0193617463, energy: -1.9635112393
Qlanc energy: -1.9874574570+0.0000000000j
ngates: [0, 0, 0, 0, 4, 4]
variance: 0.0160742549, energy: -1.9692264464
ngates: [0, 0, 0, 0, 4, 4]
variance: 0.0136169564, energy: -1.9735828159
Qlanc energy: -1.9874117685+0.0000000000j
ngates: [0, 0, 0, 0, 5, 4]
variance: 0.0117837186, energy: -1.9769071836
ngates: [0, 0, 0, 0, 5, 4]
variance: 0.0096693547, energy: -1.9799511263
Qlanc energy: -1.9883749891+0.0000000000j
ngates: [0, 0, 0, 0, 5, 4]
variance: 0.0083069560, energy: -1.9822081952
ngates: [0, 0, 0, 0, 5, 4]
variance: 0.0073722361, energy: -1.9839153227
Qlanc energy: -1.9891587315+0.0000000000j
ngates: [0, 0, 0, 0, 5, 4]
variance: 0.0067080505, energy: -1.9852232906
ngates: [0, 0, 0, 0, 5, 4]
variance: 0.0062254923, energy: -1.9862357516
Qlanc energy: -1.9894948092+0.0000000000j
ngates: [0, 0, 0, 0, 5, 4]
variance: 0.0058690822, energy: -1.9870266563
ngates: [0, 0, 0, 0, 5, 4]
variance: 0.0056020999, energy: -1.9876498389
Qlanc energy: -1.9897050578+0.0000000000j
ngates: [0, 0, 0, 0, 5, 4]
variance: 0.0053993739, energy: -1.9881449924
ngates: [0, 0, 0, 0, 5, 4]
variance: 0.0052432794, energy: -1.9885416574
Qlanc energy: -1.9898660548+0.0000000000j
ngates: [0, 0, 0, 0, 5, 4]
variance: 0.0051213093, energy: -1.9888619878
ngates: [0, 0, 0, 0, 5, 4]
variance: 0.0050245090, energy: -1.9891227112
Qlanc energy: -1.9899025238+0.0000000000j
ngates: [0, 0, 0, 0, 5, 4]
variance: 0.0049464270, energy: -1.9893365399
ngates: [0, 0, 0, 0, 5, 4]
variance: 0.0048823922, energy: -1.9895131951
Qlanc energy: -1.9899891737+0.0000000000j
ngates: [0, 0, 0, 0, 5, 4]
variance: 0.0048290083, energy: -1.9896601585
ngates: [0, 0, 0, 0, 5, 4]
variance: 0.0047837960, energy: -1.9897832248
Qlanc energy: -1.9900817324+0.0000000000j
ngates: [0, 0, 0, 0, 5, 4]
variance: 0.0047449374, energy: -1.9898869124
ngates: [0, 0, 0, 0, 5, 4]
variance: 0.0047110932, energy: -1.9899747680
Qlanc energy: -1.9901663486+0.0000000000j
ngates: [0, 0, 0, 0, 5, 4]
variance: 0.0046812707, energy: -1.9900495959
ngates: [0, 0, 0, 0, 5, 4]
variance: 0.0046547292, energy: -1.9901136286
Qlanc energy: -1.9902391693+0.0000000000j
ngates: [0, 0, 0, 0, 5, 4]
variance: 0.0046309106, energy: -1.9901686567
ngates: [0, 0, 0, 0, 5, 4]
variance: 0.0046093903, energy: -1.9902161270
Qlanc energy: -1.9902999855+0.0000000000j
ngates: [0, 0, 0, 0, 5, 4]
variance: 0.0045898413, energy: -1.9902572167
ngates: [0, 0, 0, 0, 5, 4]
variance: 0.0045720075, energy: -1.9902928906
Qlanc energy: -1.9903499110+0.0000000000j
ngates: [0, 0, 0, 0, 5, 4]
variance: 0.0045556855, energy: -1.9903239450
ngates: [0, 0, 0, 0, 5, 4]
variance: 0.0045407107, energy: -1.9903510415
Qlanc energy: -1.9903904564+0.0000000000j
ngates: [0, 0, 0, 0, 5, 4]
variance: 0.0045269473, energy: -1.9903747332
ngates: [0, 0, 0, 0, 5, 4]
variance: 0.0045142811, energy: -1.9903954852
Qlanc energy: -1.9904231460+0.0000000000j
ngates: [0, 0, 0, 0, 5, 4]
variance: 0.0045026147, energy: -1.9904136911
ngates: [0, 0, 0, 0, 5, 4]
variance: 0.0044918632, energy: -1.9904296853
Qlanc energy: -1.9904493675+0.0000000000j
ngates: [0, 0, 0, 0, 5, 4]
variance: 0.0044819516, energy: -1.9904437534
ngates: [0, 0, 0, 0, 5, 4]
variance: 0.0044728131, energy: -1.9904561404
Qlanc energy: -1.9904703218+0.0000000000j
ngates: [0, 0, 0, 0, 5, 4]
variance: 0.0044643874, energy: -1.9904670573
ngates: [0, 0, 0, 0, 5, 4]
variance: 0.0044566195, energy: -1.9904766863
Qlanc energy: -1.9904870199+0.0000000000j
ngates: [0, 0, 0, 0, 5, 4]
variance: 0.0044494590, energy: -1.9904851854
ngates: [0, 0, 0, 0, 5, 4]
variance: 0.0044428598, energy: -1.9904926917
Qlanc energy: -1.9905002974+0.0000000000j
ngates: [0, 0, 0, 0, 5, 4]
variance: 0.0044367789, energy: -1.9904993250
ngates: [0, 0, 0, 0, 5, 4]
variance: 0.0044311770, energy: -1.9905051895
Qlanc energy: -1.9905108373+0.0000000000j
ngates: [0, 0, 0, 0, 5, 4]
variance: 0.0044260173, energy: -1.9905103766
ngates: [0, 0, 0, 0, 5, 4]
variance: 0.0044212659, energy: -1.9905149661
Qlanc energy: -1.9905191930+0.0000000000j
ngates: [0, 0, 0, 0, 5, 4]
variance: 0.0044168913, energy: -1.9905190284
ngates: [0, 0, 0, 0, 5, 4]
variance: 0.0044128642, energy: -1.9905226250
Qlanc energy: -1.9905258100+0.0000000000j
ngates: [0, 0, 0, 0, 5, 4]
variance: 0.0044091574, energy: -1.9905258101
ngates: [0, 0, 0, 0, 5, 4]
variance: 0.0044057458, energy: -1.9905286315
Qlanc energy: -1.9905310459+0.0000000000j
ngates: [0, 0, 0, 0, 5, 4]
variance: 0.0044026062, energy: -1.9905311312
ngates: [0, 0, 0, 0, 5, 4]
variance: 0.0043997170, energy: -1.9905333464
Qlanc energy: -1.9905351860+0.0000000000j
ngates: [0, 0, 0, 0, 5, 4]
variance: 0.0043970582, energy: -1.9905353097
ngates: [0, 0, 0, 0, 5, 4]
variance: 0.0043946113, energy: -1.9905370500
Qlanc energy: -1.9905384580+0.0000000000j
ngates: [0, 0, 0, 0, 5, 4]
variance: 0.0043923594, energy: -1.9905385929
ngates: [0, 0, 0, 0, 5, 4]
variance: 0.0043902868, energy: -1.9905399609
Qlanc energy: -1.9905410427+0.0000000000j
ngates: [0, 0, 0, 0, 5, 4]
variance: 0.0043883789, energy: -1.9905411741
ngates: [0, 0, 0, 0, 5, 4]
variance: 0.0043866224, energy: -1.9905422499
Qlanc energy: -1.9905430838+0.0000000000j
ngates: [0, 0, 0, 0, 5, 4]
variance: 0.0043850049, energy: -1.9905432041
ngates: [0, 0, 0, 0, 5, 4]
variance: 0.0043835153, energy: -1.9905440505
Qlanc energy: -1.9905446952+0.0000000000j
ngates: [0, 0, 0, 0, 5, 4]
variance: 0.0043821430, energy: -1.9905448014
ngates: [0, 0, 0, 0, 5, 4]
variance: 0.0043808784, energy: -1.9905454674
Qlanc energy: -1.9905459670+0.0000000000j
ngates: [0, 0, 0, 0, 5, 4]
variance: 0.0043797129, energy: -1.9905460584
ngates: [0, 0, 0, 0, 5, 4]
variance: 0.0043786383, energy: -1.9905465827
Qlanc energy: -1.9905469707+0.0000000000j
ngates: [0, 0, 0, 0, 5, 4]
variance: 0.0043776471, energy: -1.9905470479
ngates: [0, 0, 0, 0, 5, 4]
variance: 0.0043767327, energy: -1.9905474607
Qlanc energy: -1.9905477625+0.0000000000j
ngates: [0, 0, 0, 0, 5, 4]
variance: 0.0043758887, energy: -1.9905478270
ngates: [0, 0, 0, 0, 5, 4]
variance: 0.0043751094, energy: -1.9905481520
Qlanc energy: -1.9905483872+0.0000000000j
ngates: [0, 0, 0, 0, 5, 4]
variance: 0.0043743896, energy: -1.9905484405
ngates: [0, 0, 0, 0, 5, 4]
variance: 0.0043737245, energy: -1.9905486965
Qlanc energy: -1.9905488800+0.0000000000j
ngates: [0, 0, 0, 0, 5, 4]
variance: 0.0043731096, energy: -1.9905489237
ngates: [0, 0, 0, 0, 5, 4]
variance: 0.0043725409, energy: -1.9905491254
Qlanc energy: -1.9905492687+0.0000000000j
ngates: [0, 0, 0, 0, 5, 4]
variance: 0.0043720147, energy: -1.9905493043
ngates: [0, 0, 0, 0, 5, 4]
variance: 0.0043715276, energy: -1.9905494632
Qlanc energy: -1.9905495753+0.0000000000j
ngates: [0, 0, 0, 0, 5, 4]
variance: 0.0043710765, energy: -1.9905496042
ngates: [0, 0, 0, 0, 5, 4]
variance: 0.0043706585, energy: -1.9905497293
Qlanc energy: -1.9905498171+0.0000000000j
ngates: [0, 0, 0, 0, 5, 4]
variance: 0.0043702711, energy: -1.9905498404
ngates: [0, 0, 0, 0, 5, 4]
variance: 0.0043699117, energy: -1.9905499390
Qlanc energy: -1.9905500077+0.0000000000j
ngates: [0, 0, 0, 0, 5, 4]
variance: 0.0043695783, energy: -1.9905500265
ngates: [0, 0, 0, 0, 5, 4]
variance: 0.0043692688, energy: -1.9905501042
Qlanc energy: -1.9905501581+0.0000000000j
ngates: [0, 0, 0, 0, 5, 4]
variance: 0.0043689813, energy: -1.9905501732
ngates: [0, 0, 0, 0, 5, 4]
variance: 0.0043687142, energy: -1.9905502344
Qlanc energy: -1.9905502767+0.0000000000j
ngates: [0, 0, 0, 0, 5, 4]
variance: 0.0043684659, energy: -1.9905502888
ngates: [0, 0, 0, 0, 5, 4]
variance: 0.0043682350, energy: -1.9905503370
Qlanc energy: -1.9905503701+0.0000000000j
ngates: [0, 0, 0, 0, 5, 4]
variance: 0.0043680201, energy: -1.9905503798
ngates: [0, 0, 0, 0, 5, 4]
variance: 0.0043678201, energy: -1.9905504179
Qlanc energy: -1.9905504439+0.0000000000j
ngates: [0, 0, 0, 0, 5, 4]
variance: 0.0043676338, energy: -1.9905504516
ngates: [0, 0, 0, 0, 5, 4]
variance: 0.0043674603, energy: -1.9905504816
Qlanc energy: -1.9905505020+0.0000000000j
ngates: [0, 0, 0, 0, 5, 4]
variance: 0.0043672985, energy: -1.9905505082
ngates: [0, 0, 0, 0, 5, 4]
variance: 0.0043671477, energy: -1.9905505318
Qlanc energy: -1.9905505478+0.0000000000j
ngates: [0, 0, 0, 0, 5, 4]
variance: 0.0043670069, energy: -1.9905505527
ngates: [0, 0, 0, 0, 5, 4]
variance: 0.0043668756, energy: -1.9905505713
Qlanc energy: -1.9905505840+0.0000000000j
ngates: [0, 0, 0, 0, 5, 4]
variance: 0.0043667530, energy: -1.9905505879
ngates: [0, 0, 0, 0, 5, 4]
variance: 0.0043666384, energy: -1.9905506025
Qlanc energy: -1.9905506124+0.0000000000j
ngates: [0, 0, 0, 0, 5, 4]
variance: 0.0043665314, energy: -1.9905506156
ngates: [0, 0, 0, 0, 5, 4]
variance: 0.0043664314, energy: -1.9905506271
Qlanc energy: -1.9905506349+0.0000000000j
ngates: [0, 0, 0, 0, 5, 4]
variance: 0.0043663379, energy: -1.9905506374
ngates: [0, 0, 0, 0, 5, 4]
variance: 0.0043662504, energy: -1.9905506465
Qlanc energy: -1.9905506526+0.0000000000j
ngates: [0, 0, 0, 0, 5, 4]
variance: 0.0043661686, energy: -1.9905506546
ngates: [0, 0, 0, 0, 5, 4]
variance: 0.0043660920, energy: -1.9905506618
Qlanc energy: -1.9905506666+0.0000000000j
ngates: [0, 0, 0, 0, 5, 4]
variance: 0.0043660203, energy: -1.9905506681
ngates: [0, 0, 0, 0, 5, 4]
variance: 0.0043659532, energy: -1.9905506738
Qlanc energy: -1.9905506776+0.0000000000j
ngates: [0, 0, 0, 0, 5, 4]
variance: 0.0043658903, energy: -1.9905506788
ngates: [0, 0, 0, 0, 5, 4]
variance: 0.0043658313, energy: -1.9905506833
Qlanc energy: -1.9905506863+0.0000000000j
ngates: [0, 0, 0, 0, 5, 4]
variance: 0.0043657761, energy: -1.9905506872
ngates: [0, 0, 0, 0, 5, 4]
variance: 0.0043657243, energy: -1.9905506908
Qlanc energy: -1.9905506931+0.0000000000j
ngates: [0, 0, 0, 0, 5, 4]
variance: 0.0043656757, energy: -1.9905506939
ngates: [0, 0, 0, 0, 5, 4]
variance: 0.0043656302, energy: -1.9905506967
Qlanc energy: -1.9905506985+0.0000000000j
ngates: [0, 0, 0, 0, 5, 4]
variance: 0.0043655874, energy: -1.9905506991
ngates: [0, 0, 0, 0, 5, 4]
variance: 0.0043655473, energy: -1.9905507013
Qlanc energy: -1.9905507028+0.0000000000j
ngates: [0, 0, 0, 0, 5, 4]
variance: 0.0043655097, energy: -1.9905507032
ngates: [0, 0, 0, 0, 5, 4]
variance: 0.0043654744, energy: -1.9905507050
Qlanc energy: -1.9905507061+0.0000000000j
ngates: [0, 0, 0, 0, 5, 4]
variance: 0.0043654412, energy: -1.9905507065
ngates: [0, 0, 0, 0, 5, 4]
variance: 0.0043654100, energy: -1.9905507079
Qlanc energy: -1.9905507088+0.0000000000j
ngates: [0, 0, 0, 0, 5, 4]
variance: 0.0043653808, energy: -1.9905507091
ngates: [0, 0, 0, 0, 5, 4]
variance: 0.0043653533, energy: -1.9905507101
Qlanc energy: -1.9905507108+0.0000000000j
ngates: [0, 0, 0, 0, 5, 4]
variance: 0.0043653275, energy: -1.9905507111
ngates: [0, 0, 0, 0, 5, 4]
variance: 0.0043653032, energy: -1.9905507119
Qlanc energy: -1.9905507125+0.0000000000j
ngates: [0, 0, 0, 0, 5, 4]
variance: 0.0043652804, energy: -1.9905507127
ngates: [0, 0, 0, 0, 5, 4]
variance: 0.0043652590, energy: -1.9905507133
Qlanc energy: -1.9905507138+0.0000000000j
ngates: [0, 0, 0, 0, 5, 4]
variance: 0.0043652388, energy: -1.9905507139
ngates: [0, 0, 0, 0, 5, 4]
variance: 0.0043652199, energy: -1.9905507144
Qlanc energy: -1.9905507148+0.0000000000j
ngates: [0, 0, 0, 0, 5, 4]
variance: 0.0043652021, energy: -1.9905507149
ngates: [0, 0, 0, 0, 5, 4]
variance: 0.0043651853, energy: -1.9905507153
Qlanc energy: -1.9905507156+0.0000000000j
ngates: [0, 0, 0, 0, 5, 4]
variance: 0.0043651696, energy: -1.9905507157
ngates: [0, 0, 0, 0, 5, 4]
variance: 0.0043651548, energy: -1.9905507160
Qlanc energy: -1.9905507162+0.0000000000j
ngates: [0, 0, 0, 0, 5, 4]
variance: 0.0043651408, energy: -1.9905507163
ngates: [0, 0, 0, 0, 5, 4]
variance: 0.0043651277, energy: -1.9905507166
Qlanc energy: -1.9905507167+0.0000000000j
ngates: [0, 0, 0, 0, 5, 4]
variance: 0.0043651154, energy: -1.9905507168
ngates: [0, 0, 0, 0, 5, 4]
variance: 0.0043651038, energy: -1.9905507170
Qlanc energy: -1.9905507171+0.0000000000j
ngates: [0, 0, 0, 0, 5, 4]
variance: 0.0043650928, energy: -1.9905507172
ngates: [0, 0, 0, 0, 5, 4]
variance: 0.0043650826, energy: -1.9905507173
Qlanc energy: -1.9905507174+0.0000000000j
ngates: [0, 0, 0, 0, 5, 4]
variance: 0.0043650729, energy: -1.9905507175
ngates: [0, 0, 0, 0, 5, 4]
variance: 0.0043650638, energy: -1.9905507176
Qlanc energy: -1.9905507177+0.0000000000j
ngates: [0, 0, 0, 0, 5, 4]
variance: 0.0043650552, energy: -1.9905507177
ngates: [0, 0, 0, 0, 5, 4]
variance: 0.0043650471, energy: -1.9905507178
Qlanc energy: -1.9905507179+0.0000000000j
Stopped due to convergence in 140 steps
Number of operators in the final ansatz: 9
Compare with initial ansatz energy: -1.9905507177
Compare with the exact energy 0: -1.9961503198
Compare with the exact energy 1: -1.9255585479
Compare with the exact energy 2: -1.8529030442
pthmaxt = 2.81e-01
qLanczos E0: -1.9905507179+0.0000000000j
qLanczos E1: 2.5000000000+0.0000000000j
Slope = 0.01 ; Intercept = -1.99
Extrapolated energy: -1.9906096380
